{
  "count": 2,
  "next": "http://localhost:8010/api/v2/objects?page=2",
  "previous": null,
  "results": [
    {
      "url": "http://localhost:8010/api/v2/objects/2d725c07-2f26-4705-8637-438a42b5ac2d",
      "uuid": "2d725c07-2f26-4705-8637-438a42b5ac2d",
      "type": "http://localhost:8011/api/v1/objecttypes/3e852115-277a-4570-873a-9a64be3aeb35",
      "record": {
        "index": 1,
        "typeVersion": 1,
        "data": {
          "naam": "erfpacht",
          "taken": [
            "58fad5ab-dc2f-11ec-9075-f22a405ce708"
          ],
          "zaken": [
            "7d9cd6c2-8147-46f2-9ae9-c67e8213c202"
          ],
          "rollen": {
            "initiator": {
              "identificatie": "123456789",
              "betrokkeneType": "natuurlijkpersoon"
            }
          },
          "status": "actief",
          "geldigTot": "2025-05-25",
          "geldigVan": "2022-05-25",
          "documenten": [
            "https://openzaak.mijngemeente.nl/documenten/api/v1/enkelvoudiginformatieobjecten/7d9cd6c2-8147-46f2-9ae9-c67e8213c116"
          ],
          "eigenschappen": {
            "contractnummer": "123456"
          },
          "PDCProductType": "7d9cd6c2-8147-46f2-9ae9-c67e8213c116",
          "verbruiksobjecten": {
            "verhuur": "7d9cd6c2-8147-46f2-9ae9-c67e8213c116",
            "geschiedenis": "7d9cd6c2-8147-46f2-9ae9-c67e8213c117"
          }
        },
        "geometry": null,
        "startAt": "2022-05-25",
        "endAt": null,
        "registrationAt": "2022-05-25",
        "correctionFor": null,
        "correctedBy": null
      }
    }
  ]
}
