{
    "count": 2,
    "next": "http://localhost:8010/api/v2/objects?page=2",
    "previous": null,
    "results": [
        {
            "url": "http://localhost:8010/api/v2/objects/2d725c07-2f26-4705-8637-438a42b5ac2d",
            "uuid": "2d725c07-2f26-4705-8637-438a42b5ac2d",
            "type": "http://localhost:8011/api/v1/objecttypes/3e852115-277a-4570-873a-9a64be3aeb35",
            "record": {
                "index": 1,
                "typeVersion": 1,
                "data": {
                    "titel": "Very important task",
                    "status": "open",
                    "soort": "formtaak",
                    "verloopdatum": "2023-09-20T18:25:43.524Z",
                    "eigenaar": "gzac",
                    "identificatie": {
                        "type": "kvk",
                        "value": "14127293"
                    },
                    "koppeling": {
                        "registratie": "zaak",
                        "uuid": "5551a7c5-4e92-43e6-8d23-80359b7e22b7"
                    },
                    "formtaak": {
                        "formulier": {
                            "soort": "url",
                            "value": "http://localhost:8010/api/v2/objects/4e40fb4c-a29a-4e48-944b-c34a1ff6c8f4"
                        },
                        "data": {
                            "voornaam": "Jan",
                            "achternaam": "Smit",
                            "toestemming": true,
                            "geboortedatum": "01-01-1970"
                        },
                        "verzonden_data": {
                            "voornaam": "Jan",
                            "achternaam": "Smit",
                            "toestemming": false,
                            "geboortedatum": "01-01-1971"
                        }
                    },
                    "verwerker_taak_id": "58fad5ab-dc2f-11ec-9075-f22a405ce708"
                },
                "geometry": null,
                "startAt": "2022-05-25",
                "endAt": null,
                "registrationAt": "2022-05-25",
                "correctionFor": null,
                "correctedBy": null
            }
        }
    ]
}
