{
    "count": 2,
    "next": "http://localhost:8010/api/v2/objects?page=2",
    "previous": null,
    "results": [
        {
            "url": "http://localhost:8010/api/v2/objects/2d94fedb-3d99-43c4-b333-f04e0ccfe78a",
            "uuid": "2d94fedb-3d99-43c4-b333-f04e0ccfe78a",
            "type": "http://localhost:8011/api/v1/objecttypes/3e852115-277a-4570-873a-9a64be3aeb35",
            "record": {
                "index": 1,
                "typeVersion": 1,
                "data": {
                    "identificatie": {
                        "type": "kvk",
                        "value": "14127293"
                    },
                    "data": {
                        "voornaam": "Peter"
                    },
                    "status": "open",
                    "formulier": {
                        "type": "id",
                        "value": "check-loan-form"
                    },
                    "verwerker_taak_id": "58fad5ab-dc2f-11ec-9075-f22a405ce707",
                    "title": "Very important task"
                },
                "geometry": null,
                "startAt": "2022-05-30",
                "endAt": null,
                "registrationAt": "2022-05-30",
                "correctionFor": null,
                "correctedBy": null
            }
        }
    ]
}